<?xml version="1.0" encoding="UTF-8" standalone="no"?>
<svg width="219px" height="91px" viewBox="0 0 219 91" version="1.1" xmlns="http://www.w3.org/2000/svg" xmlns:xlink="http://www.w3.org/1999/xlink">
    <!-- Generator: Sketch 41.2 (35397) - http://www.bohemiancoding.com/sketch -->
    <title>logo-img</title>
    <desc>Created with Sketch.</desc>
    <defs></defs>
    <g id="Landing-Page-v1" stroke="none" stroke-width="1" fill="none" fill-rule="evenodd" opacity="0.462686567">
        <g id="Desktop---Main-page" transform="translate(-53.000000, -430.000000)">
            <g id="About" transform="translate(0.000000, 338.000000)">
                <g id="logo-img" transform="translate(55.000000, 73.000000)">
                    <text id="NEED" font-family="OpenSans-Italic, Open Sans" font-size="56.59335" font-style="italic" font-weight="normal" fill="#000000">
                        <tspan x="42.8708052" y="60">NEED</tspan>
                    </text>
                    <text id="FOR" font-family="OpenSans-Italic, Open Sans" font-size="22.63734" font-style="italic" font-weight="normal" fill="#000000">
                        <tspan x="83.0388977" y="84.6896552">FOR</tspan>
                    </text>
                    <text id="KEYBOARD" font-family="OpenSans-BoldItalic, Open Sans" font-size="30.18312" font-style="italic" font-weight="bold" line-spacing="26.41023" fill="#000000">
                        <tspan x="26.0682261" y="115.448276">KEYBOARD</tspan>
                    </text>
                    <path d="M40.7497344,38.8793103 L23.7713306,38.8793103 C23.7713306,38.8793103 14.8232422,38.8793103 12.9372773,44.0948276 C11.0513124,49.3103448 0.678505345,90.0658338 0.678505345,90.0658338 C0.678505345,90.0658338 -2.15044202,99.5485924 4.45043517,99.5485924 L20.0096457,99.5485924" id="Path-2" stroke="#000000" stroke-width="3.77289" stroke-linecap="round"></path>
                    <path d="M186.679953,37.9310345 L204.360584,37.8902883 C204.360584,37.8902883 216.845262,37.9310345 214.715264,47.3730469 C212.585265,56.8150593 205.791924,85.7430294 205.791924,85.7430294 C205.791924,85.7430294 201.981317,98.5095636 192.080001,98.5095636 C182.178685,98.5095636 178.871033,98.5095636 178.871033,98.5095636" id="Path-3" stroke="#000000" stroke-width="3.77289" stroke-linecap="round"></path>
                    <polygon id="Path-4" stroke="#000000" stroke-width="3.77289" stroke-linejoin="round" fill="#000000" points="188.565918 90.7770407 183.851006 106.670848 177.250128 98.3734341"></polygon>
                </g>
            </g>
        </g>
    </g>
</svg>